…
    ## [1] "Petal.Length" "Petal.Width"  "Sepal.Length" "Sepal.Width"  "Species"

## II.2. Key dplyr functions in dplyr package for data manipulation

### 1. tibble

``` r
# turns an existing object, such as a data frame or matrix, into a so-called tibble
df <- as_tibble(iris)
df
```

    ## # A tibble: 150 × 5
    ##    Sepal.Length Sepal.Width Petal.Length Petal.Width Species
    ##           <dbl>       <dbl>        <dbl>       <dbl> <fct>  
    ##  1          5.1         3.5          1.4         0.2 setosa 
    ##  2          4.9         3            1.4         0.2 setosa 
    ##  3          4.7         3.2          1.3         0.2 setosa 
    ##  4          4.6         3.1          1.5         0.2 setosa 
    ##  5          5           3.6          1.4         0.2 setosa 
    ##  6          5.4         3.9          1.7         0.4 setosa 
    ##  7          4.6         3.4          1.4         0.3 setosa 
    ##  8          5           3.4          1.5         0.2 setosa 
    ##  9          4.4         2.9          1.4         0.2 setosa 
    ## 10          4.9         3.1          1.5         0.1 setosa 
    ## # ℹ 140 more rows

### 2. Filter: allows to subset observations based on their values

``` r
# Filter rows with filter()
filter(df, Species == "versicolor")
```

    ## # A tibble: 50 × 5
    ##    Sepal.Length Sepal.Width Petal.Length Petal.Width Species   
    ##           <dbl>       <dbl>        <dbl>       <dbl> <fct>     
    ##  1          7           3.2          4.7         1.4 versicolor
    ##  2          6.4         3.2          4.5         1.5 versicolor
    ##  3          6.9         3.1          4.9         1.5 versicolor
    ##  4          5.5         2.3          4           1.3 versicolor
    ##  5          6.5         2.8          4.6         1.5 versicolor
    ##  6          5.7         2.8          4.5         1.3 versicolor
    ##  7          6.3         3.3          4.7         1.6 versicolor
    ##  8          4.9         2.4          3.3         1   versicolor
    ##  9          6.6         2.9          4.6         1.3 versicolor
    ## 10          5.2         2.7          3.9         1.4 versicolor
    ## # ℹ 40 more rows

``` r
# EXERCISE
# Now filter observations from species virginica 


# Using filter() to choose specific observations  with logical operators
# Example 1: choose observations with petal length greater than 2
filter(df, Petal.Length > 2)
```

    ## # A tibble: 100 × 5
    ##    Sepal.Length Sepal.Width Petal.Length Petal.Width Species   
    ##           <dbl>       <dbl>        <dbl>       <dbl> <fct>     
    ##  1          7           3.2          4.7         1.4 versicolor
    ##  2          6.4         3.2          4.5         1.5 versicolor
    ##  3          6.9         3.1          4.9         1.5 versicolor
    ##  4          5.5         2.3          4           1.3 versicolor
    ##  5          6.5         2.8          4.6         1.5 versicolor
    ##  6          5.7         2.8          4.5         1.3 versicolor
    ##  7          6.3         3.3          4.7         1.6 versicolor
    ##  8          4.9         2.4          3.3         1   versicolor
    ##  9          6.6         2.9          4.6         1.3 versicolor
    ## 10          5.2         2.7          3.9         1.4 versicolor
    ## # ℹ 90 more rows
…
``` r
# EXERCISE
# Now filter those observations with Sepal.Width smaller than 2 and Species versicolor
```

### 3. arrange(): works similarly to filter() except that instead of selecting rows, it changes their order.

``` r
# default is ascending order
arrange(df, Sepal.Length, Petal.Width)
```

    ## # A tibble: 150 × 5
    ##    Sepal.Length Sepal.Width Petal.Length Petal.Width Species
    ##           <dbl>       <dbl>        <dbl>       <dbl> <fct>  
    ##  1          4.3         3            1.1         0.1 setosa 
    ##  2          4.4         2.9          1.4         0.2 setosa 
    ##  3          4.4         3            1.3         0.2 setosa 
    ##  4          4.4         3.2          1.3         0.2 setosa 
    ##  5          4.5         2.3          1.3         0.3 setosa 
    ##  6          4.6         3.1          1.5         0.2 setosa 
    ##  7          4.6         3.6          1           0.2 setosa 
    ##  8          4.6         3.2          1.4         0.2 setosa 
    ##  9          4.6         3.4          1.4         0.3 setosa 
    ## 10          4.7         3.2          1.3         0.2 setosa 
    ## # ℹ 140 more rows

``` r
# to order in descending order
arrange(df, desc(Sepal.Length))
```

    ## # A tibble: 150 × 5
    ##    Sepal.Length Sepal.Width Petal.Length Petal.Width Species  
    ##           <dbl>       <dbl>        <dbl>       <dbl> <fct>    
    ##  1          7.9         3.8          6.4         2   virginica
    ##  2          7.7         3.8          6.7         2.2 virginica
    ##  3          7.7         2.6          6.9         2.3 virginica
    ##  4          7.7         2.8          6.7         2   virginica
    ##  5          7.7         3            6.1         2.3 virginica
    ##  6          7.6         3            6.6         2.1 virginica
    ##  7          7.4         2.8          6.1         1.9 virginica
    ##  8          7.3         2.9          6.3         1.8 virginica
    ##  9          7.2         3.6          6.1         2.5 virginica
    ## 10          7.2         3.2          6           1.8 virginica
    ## # ℹ 140 more rows

``` r
# EXERCISE
# What happens if we arrange a categorical variable?
```

### 4. select(): select columns and allows to zoom in on a subset of data based on the names of the variables

``` r
# subsetting columns of interest
select(df, Species, Petal.Width, Petal.Length)
```

    ## # A tibble: 150 × 3
    ##    Species Petal.Width Petal.Length
    ##    <fct>         <dbl>        <dbl>
    ##  1 setosa          0.2          1.4
    ##  2 setosa          0.2          1.4
    ##  3 setosa          0.2          1.3
    ##  4 setosa          0.2          1.5
    ##  5 setosa          0.2          1.4
    ##  6 setosa          0.4          1.7
    ##  7 setosa          0.3          1.4
    ##  8 setosa          0.2          1.5
    ##  9 setosa          0.2          1.4
    ## 10 setosa          0.1          1.5
    ## # ℹ 140 more rows

``` r
# EXERCISE
#  Select the following columns Species and Sepal.Width
```

### 5. mutate() : adds new variables and preserves existing one

``` r
# Create a new column with log transformed values of sepal length
mutate(df, log.Sepal.length = log(Sepal.Length))
```

    ## # A tibble: 150 × 6
    ##    Sepal.Length Sepal.Width Petal.Length Petal.Width Species log.Sepal.length
    ##           <dbl>       <dbl>        <dbl>       <dbl> <fct>              <dbl>
    ##  1          5.1         3.5          1.4         0.2 setosa              1.63
    ##  2          4.9         3            1.4         0.2 setosa              1.59
    ##  3          4.7         3.2          1.3         0.2 setosa              1.55
    ##  4          4.6         3.1          1.5         0.2 setosa              1.53
    ##  5          5           3.6          1.4         0.2 setosa              1.61
    ##  6          5.4         3.9          1.7         0.4 setosa              1.69
    ##  7          4.6         3.4          1.4         0.3 setosa              1.53
    ##  8          5           3.4          1.5         0.2 setosa              1.61
    ##  9          4.4         2.9          1.4         0.2 setosa              1.48
    ## 10          4.9         3.1          1.5         0.1 setosa              1.59
    ## # ℹ 140 more rows
…
